Week 3: Polls | Jay's 2024 Election Prediction
…
# Use do.call with rbind to combine the list of dataframes into one dataframe
cnt_polls <- do.call(rbind, polls)

cnt_polls <- cnt_polls |>
  group_by(cycle,state) |>
  summarize(count=n())

## `summarise()` has grouped output by 'cycle'. You can override using the
## `.groups` argument.

# View the combined dataframe
cnt_polls

## # A tibble: 144 × 3
## # Groups:   cycle [3]
##    cycle state                count
##    <int> <chr>                <int>
##  1  2016 Alabama                 15
##  2  2016 Alaska                  15
##  3  2016 Arizona                 36
##  4  2016 Arkansas                15
##  5  2016 California              21
##  6  2016 Colorado                24
##  7  2016 Connecticut             15
##  8  2016 Delaware                12
##  9  2016 District of Columbia     9
## 10  2016 Florida                 51
## # ℹ 134 more rows
…
