Past US Elections | A minimal Hugo website
…
# no data for 1960
pv2p_states <- d_pvstate_wide |> 
  left_join(ec, by = c("state", "year")) |>
  filter(year>=min(ec$year)) |>
  mutate(d_win=D_pv>R_pv) |>
  mutate(d_evotes=d_win*electors) |>
  group_by(year)|>
  summarize(d_total_evotes=sum(d_evotes))

d_pvstate_wide |> 
  left_join(ec, by = c("state", "year")) |>
  filter(year==1960) |>
  select(electors)

## # A tibble: 50 × 1
##    electors
##       <dbl>
##  1       NA
##  2       NA
##  3       NA
##  4       NA
##  5       NA
##  6       NA
##  7       NA
##  8       NA
##  9       NA
## 10       NA
## # ℹ 40 more rows
…
(ec |>
  filter(year==2016) |>
  select(state,electors) |>
  mutate(electors=ifelse(is.na(electors),0,electors)) )$electors

##  [1]  11   3   4   8  32   6   8   0   3  10  12   3   4  27  13  10   8  10  10
## [20]   5   9  16  20  11   8  13   4   6   3   4  16   4  45  14   4  25   8   6
## [39]  32   4   8   4  11  24 444   4   3  12   9   8  12   3

a <- (ec |>
  filter(year==2008) |>
  select(state,electors) )
a[order(a$electors,decreasing=TRUE),]

## # A tibble: 52 × 2
##    state        electors
##    <chr>           <dbl>
##  1 Total             447
##  2 New York           43
##  3 California         40
##  4 Pennsylvania       29
##  5 Illinois           26
##  6 Ohio               26
##  7 Texas              25
##  8 Michigan           21
##  9 New Jersey         17
## 10 Florida            14
## # ℹ 42 more rows

# 2008 cal has 40
a <- (ec |>
  filter(year==2016) |>
  select(state,electors) )
a[order(a$electors,decreasing=TRUE),]

## # A tibble: 52 × 2
##    state         electors
##    <chr>            <dbl>
##  1 Total              444
##  2 New York            45
##  3 California          32
##  4 Pennsylvania        32
##  5 Illinois            27
##  6 Ohio                25
##  7 Texas               24
##  8 Michigan            20
##  9 Massachusetts       16
## 10 New Jersey          16
## # ℹ 42 more rows

# 2016 cal has 32

a <- (ec |>
  filter(year==2020) |>
  select(state,electors) )
a[order(a$electors,decreasing=TRUE),]

## # A tibble: 52 × 2
##    state         electors
##    <chr>            <dbl>
##  1 Total              444
##  2 New York            45
##  3 California          32
##  4 Pennsylvania        32
##  5 Illinois            27
##  6 Ohio                25
##  7 Texas               24
##  8 Michigan            20
##  9 Massachusetts       16
## 10 New Jersey          16
## # ℹ 42 more rows
…
swing <- std_vote_share|>
  left_join(d_pvstate_wide, by="region") |>
  filter(year=="2020") |>
  mutate(min_share=pmin(D_pv2p,R_pv2p))|>
  mutate(best_share=pmin(D_pv2p,R_pv2p)+std)|>
  mutate(swing=ifelse(pmin(D_pv2p,R_pv2p)+std>50,1,0))
swing$swing

##  [1] 0 0 1 0 0 0 0 0 0 0 1 0 0 0 0 1 0 0 0 0 0 0 1 0 0 0 0 0 1 0 0 0 0 0 0 0 0 0
## [39] 1 0 0 0 0 0 0 0 0 0 0 1 0

swing|>
  select(D_pv2p,R_pv2p,std,swing,min_share)

## # A tibble: 51 × 5
##    D_pv2p R_pv2p   std swing min_share
##     <dbl>  <dbl> <dbl> <dbl>     <dbl>
##  1   37.1  62.9   1.58     0     37.1 
##  2   44.7  55.3   1.59     0     44.7 
##  3   50.2  49.8   2.39     1     49.8 
##  4   35.8  64.2   1.21     0     35.8 
##  5   64.9  35.1   2.19     0     35.1 
##  6   56.9  43.1   2.44     0     43.1 
##  7   60.2  39.8   1.53     0     39.8 
##  8   59.6  40.4   2.04     0     40.4 
##  9   94.5   5.53  1.57     0      5.53
## 10   48.3  51.7   1.07     0     48.3 
## # ℹ 41 more rows
…
